{
  "npmScope": "gig-test",
  "affected": {
    "defaultBase": "master"
  },
  "implicitDependencies": {
    "package.json": {
      "dependencies": "*",
      "devDependencies": "*"
    },
    ".eslintrc.json": "*"
  },
  "tasksRunnerOptions": {
    "default": {
      "runner": "@nrwl/workspace/tasks-runners/default",
      "options": {
        "cacheableOperations": ["build", "lint", "test", "e2e"]
      }
    }
  },
  "projects": {
    "address-book": {
      "tags": []
    },
    "address-book-e2e": {
      "tags": [],
      "implicitDependencies": ["address-book"]
    },
    "shared": {
      "tags": []
    }
  }
}
